dof,h,h1e,l2e,nz
4,1.0,1.0,1.0,16.0
9,0.5,0.6616093249617174,0.3110778660969199,49.0
16,0.33333333333333337,0.46949927079570275,0.1723537376492687,100.0
25,0.25,0.3644829796522098,0.09895974923009479,169.0
36,0.20000000000000007,0.2932530707981881,0.06313866886452457,256.0
64,0.1428571428571429,0.2137315940313943,0.03248454582770877,484.0
121,0.10000000000000009,0.15065042462042802,0.015936068287312203,961.0
256,0.06666666666666676,0.10119101074607512,0.007089218789535695,2116.0
441,0.050000000000000044,0.07637624036573308,0.0039913061584291145,3721.0
676,0.040000000000000036,0.06084856035400995,0.002420682129643169,5776.0
961,0.03333333333333344,0.05117783333661736,0.0018018192663992788,8281.0
2601,0.020000000000000018,0.041367062408438446,0.00033693651441435896,22801.0
5776,0.01333333333333342,0.02009303686788462,0.0002692302772018351,51076.0
10201,0.010000000000000009,0.020553831303997693,8.416375184488534e-5,90601.0
22801,0.006666666666666821,0.01360806292881372,3.73959688261698e-5,203401.0
40401,0.0050000000000001155,0.010138278191647908,2.103279764872255e-5,361201.0
