dof,h,h1e,l2e,nz
9,0.7071067811865475,0.6992507376016613,0.7022220432928844,81.0
25,0.3826834323650898,0.2686307316478516,0.24092006722769796,289.0
49,0.2588190451025207,0.12894070682302314,0.1130326272528286,625.0
81,0.19509032201612825,0.07661275386396714,0.06659134570879963,1089.0
121,0.15643446504023084,0.051848244241474974,0.04473621897272644,1681.0
225,0.1119644761033078,0.029881368987095258,0.02537240188996019,3249.0
441,0.07845909572784501,0.01761414395006659,0.014711169294407595,6561.0
961,0.05233595624294384,0.010411342282860328,0.008529610371877753,14641.0
1681,0.039259815759068645,0.007432126724719489,0.006030168380596552,25921.0
2601,0.03141075907812832,0.005806457108666345,0.004684017964050491,40401.0
3721,0.02617694830787324,0.004780896448155116,0.003839422254603289,58081.0
10201,0.01570731731182069,0.0028109321799094185,0.00224855754039804,160801.0
